vn/com/tpbfico/grpc/UnitServiceGrpc$UnitServiceStub.class
vn/com/tpbfico/grpc/common/GetBaseRequest$Builder.class
vn/com/tpbfico/grpc/CreateUnitRequestOrBuilder.class
vn/com/tpbfico/grpc/common/ListUInt32OrBuilder.class
vn/com/tpbfico/grpc/UnitGroup$Builder.class
vn/com/tpbfico/grpc/ApiServiceGrpc$ApiServiceImplBase.class
vn/com/tpbfico/grpc/common/ListUInt32.class
vn/com/tpbfico/grpc/common/FilterOrBuilder.class
vn/com/tpbfico/grpc/ListUnitResponse$Builder.class
vn/com/tpbfico/grpc/common/Pagination$1.class
vn/com/tpbfico/grpc/ListUnitGroupRequest$Builder.class
vn/com/tpbfico/grpc/common/ListUInt32$1.class
vn/com/tpbfico/grpc/UnitServiceGrpc$UnitServiceFileDescriptorSupplier.class
vn/com/tpbfico/grpc/CreateUnitRequest$Builder.class
vn/com/tpbfico/grpc/ApiServiceGrpc$ApiServiceStub.class
vn/com/tpbfico/grpc/ListUnitGroupRequest$1.class
vn/com/tpbfico/grpc/common/Sort$1.class
vn/com/tpbfico/grpc/PingRequest$1.class
vn/com/tpbfico/grpc/common/Filter$1.class
vn/com/tpbfico/grpc/common/Common$1.class
vn/com/tpbfico/grpc/UnitServiceGrpc$UnitServiceBlockingStub.class
vn/com/tpbfico/grpc/GetUnitRequest$Builder.class
vn/com/tpbfico/grpc/CreateUnitGroupRequest.class
vn/com/tpbfico/grpc/Api.class
vn/com/tpbfico/grpc/UpdateUnitRequest$Builder.class
vn/com/tpbfico/grpc/ListUnitRequest$1.class
vn/com/tpbfico/grpc/common/ListRequest.class
vn/com/tpbfico/grpc/UnitGroupOrBuilder.class
vn/com/tpbfico/grpc/ListUnitResponse$1.class
vn/com/tpbfico/grpc/CreateUnitRequest.class
vn/com/tpbfico/grpc/common/GetBaseRequest.class
vn/com/tpbfico/grpc/UpdateUnitRequest$1.class
vn/com/tpbfico/grpc/PingRequest.class
vn/com/tpbfico/grpc/UnitServiceGrpc.class
vn/com/tpbfico/grpc/GetUnitRequest$1.class
vn/com/tpbfico/grpc/UpdateUnitRequest.class
vn/com/tpbfico/grpc/UnitServiceGrpc$UnitServiceImplBase.class
vn/com/tpbfico/grpc/ListUnitGroupRequest.class
vn/com/tpbfico/grpc/ApiServiceGrpc$ApiServiceFutureStub.class
vn/com/tpbfico/grpc/ApiServiceGrpc$ApiServiceBlockingStub.class
vn/com/tpbfico/grpc/common/GetBaseRequestOrBuilder.class
vn/com/tpbfico/grpc/PingRequestOrBuilder.class
vn/com/tpbfico/grpc/UnitServiceGrpc$UnitServiceMethodDescriptorSupplier.class
vn/com/tpbfico/grpc/common/SortOrBuilder.class
vn/com/tpbfico/grpc/common/InputType$1.class
vn/com/tpbfico/grpc/ListUnitResponseOrBuilder.class
vn/com/tpbfico/grpc/ListUnitGroupResponse.class
vn/com/tpbfico/grpc/ListUnitGroupResponse$Builder.class
vn/com/tpbfico/grpc/ApiServiceGrpc$ApiServiceFileDescriptorSupplier.class
vn/com/tpbfico/grpc/ApiServiceGrpc$ApiServiceMethodDescriptorSupplier.class
vn/com/tpbfico/grpc/UpdateUnitRequestOrBuilder.class
vn/com/tpbfico/grpc/PingRequest$Builder.class
vn/com/tpbfico/grpc/ApiServiceGrpc$1.class
vn/com/tpbfico/grpc/CreateUnitRequest$1.class
vn/com/tpbfico/grpc/Unit.class
CLI.class
vn/com/tpbfico/grpc/CreateUnitGroupRequestOrBuilder.class
vn/com/tpbfico/grpc/UnitOuterClass.class
vn/com/tpbfico/grpc/common/Filter$2.class
vn/com/tpbfico/grpc/Unit$Builder.class
vn/com/tpbfico/grpc/UnitGroup$1.class
vn/com/tpbfico/grpc/common/ListUInt32$Builder.class
vn/com/tpbfico/grpc/common/ListRequest$1.class
vn/com/tpbfico/grpc/ListUnitRequest$Builder.class
vn/com/tpbfico/grpc/UnitServiceGrpc$1.class
vn/com/tpbfico/grpc/CreateUnitGroupRequest$Builder.class
vn/com/tpbfico/grpc/common/Sort.class
vn/com/tpbfico/grpc/common/Filter$ValueCase.class
vn/com/tpbfico/grpc/PingResponse.class
vn/com/tpbfico/grpc/UnitServiceGrpc$MethodHandlers.class
vn/com/tpbfico/grpc/ListUnitRequestOrBuilder.class
vn/com/tpbfico/grpc/GetUnitRequestOrBuilder.class
vn/com/tpbfico/grpc/ApiServiceGrpc$MethodHandlers.class
vn/com/tpbfico/grpc/common/Pagination$Builder.class
vn/com/tpbfico/grpc/common/GetBaseRequest$1.class
vn/com/tpbfico/grpc/Api$1.class
vn/com/tpbfico/grpc/UnitOuterClass$1.class
vn/com/tpbfico/grpc/common/Filter.class
vn/com/tpbfico/grpc/common/InputType.class
vn/com/tpbfico/grpc/common/Filter$Builder.class
vn/com/tpbfico/grpc/GetUnitRequest.class
vn/com/tpbfico/grpc/common/Common.class
vn/com/tpbfico/grpc/common/ListRequest$Builder.class
vn/com/tpbfico/grpc/ApiServiceGrpc.class
vn/com/tpbfico/grpc/common/Pagination.class
vn/com/tpbfico/grpc/PingResponse$Builder.class
vn/com/tpbfico/grpc/common/ListRequestOrBuilder.class
vn/com/tpbfico/grpc/ListUnitResponse.class
vn/com/tpbfico/grpc/common/Sort$Builder.class
vn/com/tpbfico/grpc/UnitServiceGrpc$UnitServiceBaseDescriptorSupplier.class
vn/com/tpbfico/grpc/ApiServiceGrpc$ApiServiceBaseDescriptorSupplier.class
vn/com/tpbfico/grpc/UnitGroup.class
vn/com/tpbfico/grpc/common/PaginationOrBuilder.class
vn/com/tpbfico/grpc/CreateUnitGroupRequest$1.class
vn/com/tpbfico/grpc/ListUnitGroupRequestOrBuilder.class
vn/com/tpbfico/grpc/ListUnitGroupResponseOrBuilder.class
vn/com/tpbfico/grpc/Unit$1.class
vn/com/tpbfico/grpc/ListUnitRequest.class
vn/com/tpbfico/grpc/UnitServiceGrpc$UnitServiceFutureStub.class
vn/com/tpbfico/grpc/UnitOrBuilder.class
vn/com/tpbfico/grpc/PingResponse$1.class
vn/com/tpbfico/grpc/ListUnitGroupResponse$1.class
vn/com/tpbfico/grpc/PingResponseOrBuilder.class
